<svg width="20" height="12" viewBox="0 0 20 12" fill="none" xmlns="http://www.w3.org/2000/svg">
<path fill-rule="evenodd" clip-rule="evenodd" d="M10 6C11.6569 6 13 4.65685 13 3C13 1.34315 11.6569 0 10 0C8.34315 0 7 1.34315 7 3C7 4.65685 8.34315 6 10 6Z" fill="#1F3966"/>
<path d="M6 11C6 8.79086 7.79086 7 10 7V7C12.2091 7 14 8.79086 14 11V12H6V11Z" fill="#1F3966"/>
<path fill-rule="evenodd" clip-rule="evenodd" d="M17 8C18.1046 8 19 7.10457 19 6C19 4.89543 18.1046 4 17 4C15.8954 4 15 4.89543 15 6C15 7.10457 15.8954 8 17 8Z" fill="#1F3966"/>
<path fill-rule="evenodd" clip-rule="evenodd" d="M16.16 7.97482C16.7103 7.86198 17.2806 7.8961 17.8135 8.07374V8.07374C19.1193 8.509 20 9.73097 20 11.1074V11.8026H15.5556V10.9904C15.5556 10.0369 15.3667 9.09283 15 8.21266V8.21266L16.16 7.97482Z" fill="#1F3966"/>
<path fill-rule="evenodd" clip-rule="evenodd" d="M3 8C1.89543 8 1 7.10457 1 6C1 4.89543 1.89543 4 3 4C4.10457 4 5 4.89543 5 6C5 7.10457 4.10457 8 3 8Z" fill="#1F3966"/>
<path fill-rule="evenodd" clip-rule="evenodd" d="M3.94868 8.05964C3.33288 7.85438 2.66712 7.85438 2.05132 8.05964V8.05964C0.82629 8.46799 0 9.6144 0 10.9057V11.7434H4.44444V11.1879C4.44444 10.2343 4.63326 9.29026 5 8.41008V8.41008L3.94868 8.05964Z" fill="#1F3966"/>
</svg>
