<?xml version="1.0" encoding="utf-8"?>
<svg version="1.1" xmlns="http://www.w3.org/2000/svg" x="0px" y="0px"
	 viewBox="0 0 9 12">
<g>
	<circle cx="4.5" cy="4.5" r="1.5"/>
	<path d="M8.5,4.5H8c0,0.2-0.1,0.7-0.3,1.2l0,0C7.4,6.2,7.1,6.8,6.7,7.4l0,0C6,8.6,5.1,9.8,4.5,10.5l0,0l0,0v-0.1l0,0
		l0,0v-0.1v0.1l0,0l0,0v0.1l0,0l0,0C3.9,9.8,3,8.6,2.3,7.4l0,0C1.9,6.8,1.6,6.2,1.3,5.7l0,0l0,0C1.1,5.2,1,4.7,1,4.5
		C1,2.6,2.6,1,4.5,1C6.4,1,8,2.6,8,4.5H8.5H9C9,2,7,0,4.5,0C2,0,0,2,0,4.5c0,0.5,0.2,1,0.4,1.6l0,0c0.3,0.6,0.6,1.2,1,1.8l0,0
		c0.8,1.2,1.7,2.4,2.4,3.2l0,0c0.2,0.2,0.5,0.3,0.7,0.3c0.3,0,0.5-0.1,0.7-0.3l0,0l0,0c0.6-0.8,1.6-2,2.4-3.2l0,0
		c0.4-0.6,0.7-1.2,1-1.8l0,0C8.8,5.5,9,5,9,4.5H8.5z"/>
</g>
</svg>
