<?xml version="1.0" encoding="utf-8"?>
<svg version="1.1" xmlns="http://www.w3.org/2000/svg" x="0px" y="0px"
	 viewBox="0 0 14 14">
<g>
	<polygon points="7.9,0 6.1,0 6.1,6.1 0,6.1 0,7.9 6.1,7.9 6.1,14 7.9,14 7.9,7.9 14,7.9 14,6.1 7.9,6.1 	"/>
</g>
</svg>
