<?xml version="1.0" encoding="utf-8"?>
<svg version="1.1" xmlns="http://www.w3.org/2000/svg" x="0px" y="0px"
	 viewBox="0 0 19 20">
<g>
	<path d="M10.5,13.3H8.6c-2.7,0-4.8,2.1-4.8,4.8V20h11.4v-1.9C15.2,15.4,13.1,13.3,10.5,13.3z"/>
	<path d="M6,11.9c-1.1-1.7-1-4,0.5-5.5c1.7-1.7,4.4-1.7,6.1,0c1.5,1.5,1.6,3.8,0.5,5.5c0.6,0.3,1.1,0.6,1.6,1
		c1.6-2.4,1.3-5.7-0.8-7.8c-2.4-2.4-6.4-2.4-8.8,0C3,7.3,2.8,10.5,4.4,13C4.9,12.5,5.4,12.2,6,11.9z"/>
	<path d="M3.3,14c-1-1.3-1.4-2.9-1.4-4.5c0-2,0.8-3.9,2.2-5.4c3-2.9,7.8-2.9,10.8,0c2.7,2.7,3,6.8,0.8,9.8
		c0.4,0.6,0.8,1.1,1,1.8c3.2-3.7,3.1-9.4-0.5-12.9c-3.6-3.7-9.7-3.7-13.4,0C1,4.6,0,7,0,9.5c0,2.3,0.9,4.5,2.4,6.2
		C2.6,15.1,3,14.5,3.3,14z"/>
	<path d="M9.5,12.4c1.6,0,2.9-1.3,2.9-2.9s-1.3-2.9-2.9-2.9S6.7,8,6.7,9.5S7.9,12.4,9.5,12.4z"/>
</g>
</svg>
