<svg width="22" height="28" viewBox="0 0 22 28" fill="none" xmlns="http://www.w3.org/2000/svg">
<rect width="5" height="5" fill="white"/>
<rect y="7" width="5" height="21" fill="white"/>
<rect x="17" width="5" height="28" fill="white"/>
<rect x="22" y="11" width="5" height="22" transform="rotate(90 22 11)" fill="white"/>
</svg>
